…
    ## Warning in min(diff, na.rm = TRUE): no non-missing arguments to min; returning
    ## Inf

    ## Warning in min(diff, na.rm = TRUE): no non-missing arguments to min; returning
    ## Inf

``` r
q2_df
```

    ## # A tibble: 46 x 6
    ## # Groups:   STATE [46]
    ##    STATE USAFID  temp wind.sp atm.press diff[,1]
    ##    <chr>  <int> <dbl>   <dbl>     <dbl>    <dbl>
    ##  1 AL    722286  26.4    1.68     1015.   0.0561
    ##  2 AR    723407  25.9    2.21     1015.   0.461 
    ##  3 AZ    722745  30.3    3.31     1010.   0.233 
    ##  4 CA    722970  22.8    2.33     1013.   0.300 
    ##  5 CO    724767  22.0    2.78     1014.   0.944 
    ##  6 CT    725087  22.6    2.13     1015.   0.346 
    ##  7 DE    724180  24.6    2.75     1015.   0     
    ##  8 FL    722106  27.5    2.71     1015.   0.0477
    ##  9 GA    723160  26.6    1.68     1015.   0.312 
    ## 10 IA    725480  21.4    2.76     1015.   0.199 
    ## # ... with 36 more rows
…
